…
# create columns of record count for each of end_depth
end_depth_occ_df <- end_depth_occ_df %>%
  rowwise() %>%
  mutate(count = get_occ_count_with_end_depth(end_depth))

end_depth_occ_df 
```

    ## # A tibble: 1,001 × 2
    ## # Rowwise: 
    ##    end_depth   count
    ##        <dbl>   <int>
    ##  1         0 8772541
    ##  2      -100   16900
    ##  3      -200   11297
    ##  4      -300    8216
    ##  5      -400    6527
    ##  6      -500    5129
    ##  7      -600    3734
    ##  8      -700    2803
    ##  9      -800    2321
    ## 10      -900    1978
    ## # … with 991 more rows
…
